Real Estate Analysis
================
sho
7/28/2020

## Preliminary EDA on real estate data

    ## # A tibble: 389 x 12
    ##     Unit Address SoldPrice AskingPrice   Bed  Bath  Sqft   Age SoldDate
    ##    <dbl> <chr>       <dbl>       <dbl> <dbl> <dbl> <dbl> <dbl> <chr>   
    ##  1   323 9288 O~    565700      588000     2     2   897    11 7/13/20~
    ##  2  1205 7488 L~    733000      768000     2     2   878     3 7/17/20~
    ##  3   417 23233 ~    525000      558888     2     2   850     0 4/1/2020
    ##  4   307 8033 S~    595000      629000     2     2   862    10 7/8/2020
    ##  5   601 10155 ~    502500      509000     2     2   752     6 3/10/20~
    ##  6  1101 8800 H~    771800      799000     2     2   806     0 7/6/2020
    ##  7   501 9399 A~    600000      638000     2     2   821     5 7/6/2020
    ##  8  1707 9188 C~    598000      599000     2     2   809    13 7/9/2020
    ##  9  1708 8833 H~    735000      755000     2     2   822     4 6/28/20~
    ## 10   216 9366 T~    620000      629000     2     2   834     4 7/1/2020
    ## # ... with 379 more rows, and 3 more variables: DaysOnMarket <dbl>,
    ## #   PriceSqft <dbl>, Floor <dbl>
…
